%YAML 1.1
%TAG !u! tag:unity3d.com,2011:
--- !u!1 &761026396455425080
GameObject:
  m_ObjectHideFlags: 0
  m_CorrespondingSourceObject: {fileID: 0}
  m_PrefabInstance: {fileID: 0}
  m_PrefabAsset: {fileID: 0}
  serializedVersion: 6
  m_Component:
  - component: {fileID: 8606623252342592265}
  - component: {fileID: 8118893788748958427}
  m_Layer: 0
  m_Name: Deep Space Robot
  m_TagString: Untagged
  m_Icon: {fileID: 0}
  m_NavMeshLayer: 0
  m_StaticEditorFlags: 0
  m_IsActive: 1
--- !u!4 &8606623252342592265
Transform:
  m_ObjectHideFlags: 0
  m_CorrespondingSourceObject: {fileID: 0}
  m_PrefabInstance: {fileID: 0}
  m_PrefabAsset: {fileID: 0}
  m_GameObject: {fileID: 761026396455425080}
  m_LocalRotation: {x: 0, y: 0, z: 0, w: 1}
  m_LocalPosition: {x: 0, y: 0, z: 0}
  m_LocalScale: {x: 0.04, y: 0.04, z: 0.04}
  m_Children:
  - {fileID: 4173971178203375406}
  m_Father: {fileID: 0}
  m_RootOrder: 0
  m_LocalEulerAnglesHint: {x: 0, y: 0, z: 0}
--- !u!114 &8118893788748958427
MonoBehaviour:
  m_ObjectHideFlags: 0
  m_CorrespondingSourceObject: {fileID: 0}
  m_PrefabInstance: {fileID: 0}
  m_PrefabAsset: {fileID: 0}
  m_GameObject: {fileID: 761026396455425080}
  m_Enabled: 1
  m_EditorHideFlags: 0
  m_Script: {fileID: 11500000, guid: 7c33685fb79400a44abb09803567aad2, type: 3}
  m_Name: 
  m_EditorClassIdentifier: 
  robotBase: {fileID: 1132573345088345405}
--- !u!1001 &8977460087322725428
PrefabInstance:
  m_ObjectHideFlags: 0
  serializedVersion: 2
  m_Modification:
    m_TransformParent: {fileID: 8606623252342592265}
    m_Modifications:
    - target: {fileID: -927199367670048503, guid: f7072e61d895fed4cae31f799c608dab,
        type: 3}
      propertyPath: m_Name
      value: Elon
      objectReference: {fileID: 0}
    - target: {fileID: -4216859302048453862, guid: f7072e61d895fed4cae31f799c608dab,
        type: 3}
      propertyPath: m_LocalPosition.x
      value: -34.3
      objectReference: {fileID: 0}
    - target: {fileID: -4216859302048453862, guid: f7072e61d895fed4cae31f799c608dab,
        type: 3}
      propertyPath: m_LocalPosition.y
      value: 7.05
      objectReference: {fileID: 0}
    - target: {fileID: -4216859302048453862, guid: f7072e61d895fed4cae31f799c608dab,
        type: 3}
      propertyPath: m_LocalPosition.z
      value: -10.8
      objectReference: {fileID: 0}
    - target: {fileID: -4216859302048453862, guid: f7072e61d895fed4cae31f799c608dab,
        type: 3}
      propertyPath: m_LocalRotation.x
      value: -0
      objectReference: {fileID: 0}
    - target: {fileID: -4216859302048453862, guid: f7072e61d895fed4cae31f799c608dab,
        type: 3}
      propertyPath: m_LocalRotation.y
      value: -0
      objectReference: {fileID: 0}
    - target: {fileID: -4216859302048453862, guid: f7072e61d895fed4cae31f799c608dab,
        type: 3}
      propertyPath: m_LocalRotation.z
      value: -0
      objectReference: {fileID: 0}
    - target: {fileID: -4216859302048453862, guid: f7072e61d895fed4cae31f799c608dab,
        type: 3}
      propertyPath: m_LocalRotation.w
      value: 1
      objectReference: {fileID: 0}
    - target: {fileID: -4216859302048453862, guid: f7072e61d895fed4cae31f799c608dab,
        type: 3}
      propertyPath: m_RootOrder
      value: 0
      objectReference: {fileID: 0}
    - target: {fileID: -4216859302048453862, guid: f7072e61d895fed4cae31f799c608dab,
        type: 3}
      propertyPath: m_LocalEulerAnglesHint.x
      value: 0
      objectReference: {fileID: 0}
    - target: {fileID: -4216859302048453862, guid: f7072e61d895fed4cae31f799c608dab,
        type: 3}
      propertyPath: m_LocalEulerAnglesHint.y
      value: 0
      objectReference: {fileID: 0}
    - target: {fileID: -4216859302048453862, guid: f7072e61d895fed4cae31f799c608dab,
        type: 3}
      propertyPath: m_LocalEulerAnglesHint.z
      value: 0
      objectReference: {fileID: 0}
    m_RemovedComponents: []
  m_SourcePrefab: {fileID: 100100000, guid: f7072e61d895fed4cae31f799c608dab, type: 3}
--- !u!1 &1132573345088345405 stripped
GameObject:
  m_CorrespondingSourceObject: {fileID: -927199367670048503, guid: f7072e61d895fed4cae31f799c608dab,
    type: 3}
  m_PrefabInstance: {fileID: 8977460087322725428}
  m_PrefabAsset: {fileID: 0}
--- !u!4 &4173971178203375406 stripped
Transform:
  m_CorrespondingSourceObject: {fileID: -4216859302048453862, guid: f7072e61d895fed4cae31f799c608dab,
    type: 3}
  m_PrefabInstance: {fileID: 8977460087322725428}
  m_PrefabAsset: {fileID: 0}
